{
    "2012_12875520_MagDown": {
        "options": ["MC_12875520_2012_MagDown.py"],
        "bookkeeping_path": "/MC/2012/Beam4000GeV-2012-MagDown-Nu2.5-Pythia8/Sim08a/Digi13/Trig0x409f0045/Reco14a/Stripping20NoPrescalingFlagged/12875520/ALLSTREAMS.DST",
        "dq_flag": "OK",
        "application": "DaVinci",
        "application_version": "v39r1p1",
        "output_type": "CHARM_D02KSPIPI_DVNTUPLE.ROOT"
    },
    "2012_12875520_MagUp": {
        "options": ["MC_12875520_2012_MagUp.py"],
        "bookkeeping_path": "/MC/2012/Beam4000GeV-2012-MagDown-Nu2.5-Pythia8/Sim08a/Digi13/Trig0x409f0045/Reco14a/Stripping20NoPrescalingFlagged/12875520/ALLSTREAMS.DST",
        "dq_flag": "OK",
        "application": "DaVinci",
        "application_version": "v39r1p1",
        "output_type": "CHARM_D02KSPIPI_DVNTUPLE.ROOT"
    },
    "2012_11876120_MagDown": {
        "options": ["MC_11876120_2012_MagDown.py"],
        "bookkeeping_path": "/MC/2012/Beam4000GeV-2012-MagDown-Nu2.5-Pythia8/Sim08a/Digi13/Trig0x409f0045/Reco14a/Stripping20NoPrescalingFlagged/11876120/ALLSTREAMS.DST",
        "dq_flag": "OK",
        "application": "DaVinci",
        "application_version": "v39r1p1",
        "output_type": "CHARM_D02KSPIPI_DVNTUPLE.ROOT"
    },
    "2012_11876120_MagUp": {
        "options": ["MC_11876120_2012_MagUp.py"],
        "bookkeeping_path": "/MC/2012/Beam4000GeV-2012-MagUp-Nu2.5-Pythia8/Sim08a/Digi13/Trig0x409f0045/Reco14a/Stripping20NoPrescalingFlagged/11876120/ALLSTREAMS.DST",
        "dq_flag": "OK",
        "application": "DaVinci",
        "application_version": "v39r1p1",
        "output_type": "CHARM_D02KSPIPI_DVNTUPLE.ROOT"
    }
}

