{

    "MC_KKMUE_2015_MagDown": {
        "options": ["RareCharm_MC_KKMuE_Run2_New.py", "MC_MD_2015_CHARM_HHMUE.py"],
	"bookkeeping_path": "/MC/2015/Beam6500GeV-2015-MagDown-Nu1.6-25ns-Pythia8/Sim09h/Trig0x411400a2/Reco15a/Turbo02/Stripping24r1NoPrescalingFlagged/27225003/ALLSTREAMS.MDST",
        "dq_flag": "ALL",
        "application": "DaVinci",
        "application_version": "v44r10p2",
        "output_type": "RARECHARM_MC_4BODIES_KKMUE.ROOT",
        "n_lfns": 10
    },

    "MC_KKMUE_2015_MagUp": {
        "options": ["RareCharm_MC_KKMuE_Run2_New.py", "MC_MU_2015_CHARM_HHMUE.py"],
	"bookkeeping_path": "/MC/2015/Beam6500GeV-2015-MagUp-Nu1.6-25ns-Pythia8/Sim09h/Trig0x411400a2/Reco15a/Turbo02/Stripping24r1NoPrescalingFlagged/27225003/ALLSTREAMS.MDST",
        "dq_flag": "ALL",
        "application": "DaVinci",
        "application_version": "v44r10p2",
        "output_type": "RARECHARM_MC_4BODIES_KKMUE.ROOT",
        "n_lfns": 10
    },

    "MC_KKMUE_2016_MagDown": {
        "options": ["RareCharm_MC_KKMuE_Run2_New.py", "MC_MD_2016_CHARM_HHMUE.py"],
	"bookkeeping_path": "/MC/2016/Beam6500GeV-2016-MagDown-Nu1.6-25ns-Pythia8/Sim09h/Trig0x6139160F/Reco16/Turbo03a/Stripping28r1NoPrescalingFlagged/27375009/ALLSTREAMS.MDST",
        "dq_flag": "ALL",
        "application": "DaVinci",
        "application_version": "v44r10p2",
        "output_type": "RARECHARM_MC_4BODIES_KKMUE.ROOT"
    },

    "MC_KKMUE_2016_MagUp": {
        "options": ["RareCharm_MC_KKMuE_Run2_New.py", "MC_MU_2016_CHARM_HHMUE.py"],
	"bookkeeping_path": "/MC/2016/Beam6500GeV-2016-MagUp-Nu1.6-25ns-Pythia8/Sim09h/Trig0x6139160F/Reco16/Turbo03a/Stripping28r1NoPrescalingFlagged/27375009/ALLSTREAMS.MDST",
        "dq_flag": "ALL",
        "application": "DaVinci",
        "application_version": "v44r10p2",
        "output_type": "RARECHARM_MC_4BODIES_KKMUE.ROOT"
    },

    "MC_KKMUE_2017_MagDown": {
        "options": ["RareCharm_MC_KKMuE_Run2_New.py", "MC_MD_2017_CHARM_HHMUE.py"],
	"bookkeeping_path": "/MC/2017/Beam6500GeV-2017-MagDown-Nu1.6-25ns-Pythia8/Sim09h/Trig0x62661709/Reco17/Turbo04a-WithTurcal/Stripping29r2NoPrescalingFlagged/27375009/ALLSTREAMS.MDST",
        "dq_flag": "ALL",
        "application": "DaVinci",
        "application_version": "v44r10p2",
        "output_type": "RARECHARM_MC_4BODIES_KKMUE.ROOT"
    },

    "MC_KKMUE_2017_MagUp": {
        "options": ["RareCharm_MC_KKMuE_Run2_New.py", "MC_MU_2017_CHARM_HHMUE.py"],
	"bookkeeping_path": "/MC/2017/Beam6500GeV-2017-MagUp-Nu1.6-25ns-Pythia8/Sim09h/Trig0x62661709/Reco17/Turbo04a-WithTurcal/Stripping29r2NoPrescalingFlagged/27375009/ALLSTREAMS.MDST",
        "dq_flag": "ALL",
        "application": "DaVinci",
        "application_version": "v44r10p2",
        "output_type": "RARECHARM_MC_4BODIES_KKMUE.ROOT"
    },

    "MC_KKMUE_2018_MagDown": {
        "options": ["RareCharm_MC_KKMuE_Run2_New.py", "MC_MD_2018_CHARM_HHMUE.py"],
	"bookkeeping_path": "/MC/2018/Beam6500GeV-2018-MagDown-Nu1.6-25ns-Pythia8/Sim09h/Trig0x617d18a4/Reco18/Turbo05-WithTurcal/Stripping34NoPrescalingFlagged/27375009/ALLSTREAMS.MDST",
        "dq_flag": "ALL",
        "application": "DaVinci",
        "application_version": "v44r10p2",
        "output_type": "RARECHARM_MC_4BODIES_KKMUE.ROOT"
    },

    "MC_KKMUE_2018_MagUp": {
        "options": ["RareCharm_MC_KKMuE_Run2_New.py", "MC_MU_2018_CHARM_HHMUE.py"],
	"bookkeeping_path": "/MC/2018/Beam6500GeV-2018-MagUp-Nu1.6-25ns-Pythia8/Sim09h/Trig0x617d18a4/Reco18/Turbo05-WithTurcal/Stripping34NoPrescalingFlagged/27375009/ALLSTREAMS.MDST",
        "dq_flag": "ALL",
        "application": "DaVinci",
        "application_version": "v44r10p2",
        "output_type": "RARECHARM_MC_4BODIES_KKMUE.ROOT"
    },


    "MC_PIPIMUE_2015_MagDown": {
        "options": ["RareCharm_MC_PiPiMuE_Run2_New.py", "MC_MD_2015_CHARM_HHMUE.py"],
	"bookkeeping_path": "/MC/2015/Beam6500GeV-2015-MagDown-Nu1.6-25ns-Pythia8/Sim09h/Trig0x411400a2/Reco15a/Turbo02/Stripping24r1NoPrescalingFlagged/27375075/ALLSTREAMS.MDST",
        "dq_flag": "ALL",
        "application": "DaVinci",
        "application_version": "v44r10p2",
        "output_type": "RARECHARM_MC_4BODIES_PIPIMUE.ROOT"
    },

    "MC_PIPIMUE_2015_MagUp": {
        "options": ["RareCharm_MC_PiPiMuE_Run2_New.py", "MC_MU_2015_CHARM_HHMUE.py"],
	"bookkeeping_path": "/MC/2015/Beam6500GeV-2015-MagUp-Nu1.6-25ns-Pythia8/Sim09h/Trig0x411400a2/Reco15a/Turbo02/Stripping24r1NoPrescalingFlagged/27375075/ALLSTREAMS.MDST",
        "dq_flag": "ALL",
        "application": "DaVinci",
        "application_version": "v44r10p2",
        "output_type": "RARECHARM_MC_4BODIES_PIPIMUE.ROOT"
    },

    "MC_PIPIMUE_2016_MagDown": {
        "options": ["RareCharm_MC_PiPiMuE_Run2_New.py", "MC_MD_2016_CHARM_HHMUE.py"],
	"bookkeeping_path": "/MC/2016/Beam6500GeV-2016-MagDown-Nu1.6-25ns-Pythia8/Sim09h/Trig0x6139160F/Reco16/Turbo03a/Stripping28r1NoPrescalingFlagged/27375075/ALLSTREAMS.MDST",
        "dq_flag": "ALL",
        "application": "DaVinci",
        "application_version": "v44r10p2",
        "output_type": "RARECHARM_MC_4BODIES_PIPIMUE.ROOT"
    },

    "MC_PIPIMUE_2016_MagUp": {
        "options": ["RareCharm_MC_PiPiMuE_Run2_New.py", "MC_MU_2016_CHARM_HHMUE.py"],
	"bookkeeping_path": "/MC/2016/Beam6500GeV-2016-MagUp-Nu1.6-25ns-Pythia8/Sim09h/Trig0x6139160F/Reco16/Turbo03a/Stripping28r1NoPrescalingFlagged/27375075/ALLSTREAMS.MDST",
        "dq_flag": "ALL",
        "application": "DaVinci",
        "application_version": "v44r10p2",
        "output_type": "RARECHARM_MC_4BODIES_PIPIMUE.ROOT"
    },

    "MC_PIPIMUE_2017_MagDown": {
        "options": ["RareCharm_MC_PiPiMuE_Run2_New.py", "MC_MD_2017_CHARM_HHMUE.py"],
	"bookkeeping_path": "/MC/2017/Beam6500GeV-2017-MagDown-Nu1.6-25ns-Pythia8/Sim09h/Trig0x62661709/Reco17/Turbo04a-WithTurcal/Stripping29r2NoPrescalingFlagged/27375075/ALLSTREAMS.MDST",
        "dq_flag": "ALL",
        "application": "DaVinci",
        "application_version": "v44r10p2",
        "output_type": "RARECHARM_MC_4BODIES_PIPIMUE.ROOT"
    },

    "MC_PIPIMUE_2017_MagUp": {
        "options": ["RareCharm_MC_PiPiMuE_Run2_New.py", "MC_MU_2017_CHARM_HHMUE.py"],
	"bookkeeping_path": "/MC/2017/Beam6500GeV-2017-MagUp-Nu1.6-25ns-Pythia8/Sim09h/Trig0x62661709/Reco17/Turbo04a-WithTurcal/Stripping29r2NoPrescalingFlagged/27375075/ALLSTREAMS.MDST",
        "dq_flag": "ALL",
        "application": "DaVinci",
        "application_version": "v44r10p2",
        "output_type": "RARECHARM_MC_4BODIES_PIPIMUE.ROOT"
    },

    "MC_PIPIMUE_2018_MagDown": {
        "options": ["RareCharm_MC_PiPiMuE_Run2_New.py", "MC_MD_2018_CHARM_HHMUE.py"],
	"bookkeeping_path": "/MC/2018/Beam6500GeV-2018-MagDown-Nu1.6-25ns-Pythia8/Sim09h/Trig0x617d18a4/Reco18/Turbo05-WithTurcal/Stripping34NoPrescalingFlagged/27375075/ALLSTREAMS.MDST",
        "dq_flag": "ALL",
        "application": "DaVinci",
        "application_version": "v44r10p2",
        "output_type": "RARECHARM_MC_4BODIES_PIPIMUE.ROOT"
    },

    "MC_PIPIMUE_2018_MagUp": {
        "options": ["RareCharm_MC_PiPiMuE_Run2_New.py", "MC_MU_2018_CHARM_HHMUE.py"],
	"bookkeeping_path": "/MC/2018/Beam6500GeV-2018-MagUp-Nu1.6-25ns-Pythia8/Sim09h/Trig0x617d18a4/Reco18/Turbo05-WithTurcal/Stripping34NoPrescalingFlagged/27375075/ALLSTREAMS.MDST",
        "dq_flag": "ALL",
        "application": "DaVinci",
        "application_version": "v44r10p2",
        "output_type": "RARECHARM_MC_4BODIES_PIPIMUE.ROOT"
    }


}
